…
#returns the original data frame.
  return(df) 
}

#Calling the function
col_add(x, "humid", "precip", "mynewcol") 
```

```
## Warning in col_add(x, "humid", "precip", "mynewcol"): i or j does not
## belong to df
```

```
## # A tibble: 26,130 × 16
##    origin  year month   day  hour  temp  dewp humid wind_dir wind_speed
##     <chr> <dbl> <dbl> <int> <int> <dbl> <dbl> <dbl>    <dbl>      <dbl>
## 1     EWR  2013     1     1     0 37.04 21.92 53.97      230   10.35702
## 2     EWR  2013     1     1     1 37.04 21.92 53.97      230   13.80936
## 3     EWR  2013     1     1     2 37.94 21.92 52.09      230   12.65858
## 4     EWR  2013     1     1     3 37.94 23.00 54.51      230   13.80936
## 5     EWR  2013     1     1     4 37.94 24.08 57.04      240   14.96014
## 6     EWR  2013     1     1     6 39.02 26.06 59.37      270   10.35702
## 7     EWR  2013     1     1     7 39.02 26.96 61.63      250    8.05546
## 8     EWR  2013     1     1     8 39.02 28.04 64.43      240   11.50780
## 9     EWR  2013     1     1     9 39.92 28.04 62.21      250   12.65858
## 10    EWR  2013     1     1    10 39.02 28.04 64.43      260   12.65858
## # ... with 26,120 more rows, and 6 more variables: wind_gust <dbl>,
## #   precip <dbl>, pressure <dbl>, visib <dbl>, time_hour <dttm>,
## #   mynewcol <dbl>
```
